<svg xmlns="http://www.w3.org/2000/svg" width="33.195" height="28.977" viewBox="0 0 33.195 28.977">
  <g id="shop" transform="translate(0.15 -29.85)">
    <g id="Group_2328" data-name="Group 2328" transform="translate(0 30)">
      <g id="Group_2327" data-name="Group 2327" transform="translate(0 0)">
        <path id="Path_3119" data-name="Path 3119" d="M32.6,35.834h0l-2.831-4.8A2.119,2.119,0,0,0,27.959,30H5.491a2.11,2.11,0,0,0-1.729.9L.377,35.753A2.1,2.1,0,0,0,0,36.959v1.314a3.337,3.337,0,0,0,2.319,3.159V57.976a.684.684,0,0,0,.666.7H29.854a.717.717,0,0,0,.721-.7V41.445a3.328,3.328,0,0,0,2.319-3.171V36.9A2.163,2.163,0,0,0,32.6,35.834ZM19.68,57.272H13.214V47.712H19.68Zm9.489,0H21.086V47.016a.73.73,0,0,0-.728-.709H12.5a.7.7,0,0,0-.689.7s0,0,0,0V57.272H3.725v-15.7a3.353,3.353,0,0,0,1.88-.887,4.215,4.215,0,0,0,7.311.52,4.223,4.223,0,0,0,7.054-.044,4.239,4.239,0,0,0,7.353-.465,3.344,3.344,0,0,0,1.847.87Zm2.319-19a1.91,1.91,0,0,1-3.778.4l-.046-.474a.7.7,0,0,0-1.4.069,3.321,3.321,0,0,0,.057.614v0a2.81,2.81,0,0,1-5.619-.034.7.7,0,0,0-.7-.7H19.94a.7.7,0,0,0-.7.7,2.81,2.81,0,1,1-5.62.029c0-.009,0-.019,0-.028a.7.7,0,0,0-1.406,0,2.81,2.81,0,0,1-5.62.022l.013-.188a3.34,3.34,0,0,0,.026-.42.7.7,0,0,0-1.4-.047l-.022.324a1.91,1.91,0,0,1-3.8-.277V36.959a.7.7,0,0,1,.124-.4l3.385-4.851a.7.7,0,0,1,.575-.3H27.959a.7.7,0,0,1,.605.345l2.829,4.794a.7.7,0,0,1,.1.357Z" transform="translate(0 -30)" fill="#ffcc0f" stroke="#fff" stroke-width="0.3"/>
      </g>
    </g>
    <g id="Group_2330" data-name="Group 2330" transform="translate(4.639 46.588)">
      <g id="Group_2329" data-name="Group 2329">
        <path id="Path_3120" data-name="Path 3120" d="M71.131,266H66.7a.7.7,0,0,0-.7.7v4.147a.7.7,0,0,0,.7.7h4.428a.7.7,0,0,0,.7-.7V266.7A.7.7,0,0,0,71.131,266Zm-.7,4.147H67.406v-2.741h3.022Z" transform="translate(-66 -266)" fill="#ffcc0f" stroke="#fff" stroke-width="0.3"/>
      </g>
    </g>
    <g id="Group_2332" data-name="Group 2332" transform="translate(22.351 46.588)">
      <g id="Group_2331" data-name="Group 2331">
        <path id="Path_3121" data-name="Path 3121" d="M323.131,266H318.7a.7.7,0,0,0-.7.7v4.147a.7.7,0,0,0,.7.7h4.428a.7.7,0,0,0,.7-.7V266.7A.7.7,0,0,0,323.131,266Zm-.7,4.147h-3.022v-2.741h3.022Z" transform="translate(-318 -266)" fill="#ffcc0f" stroke="#fff" stroke-width="0.3"/>
      </g>
    </g>
  </g>
</svg>
