<svg id="_002-truck" data-name="002-truck" xmlns="http://www.w3.org/2000/svg" width="16.744" height="12" viewBox="0 0 16.744 12">
  <g id="Group_1084" data-name="Group 1084" transform="translate(2.233 8.651)">
    <g id="Group_1083" data-name="Group 1083" transform="translate(0 0)">
      <path id="Path_1704" data-name="Path 1704" d="M69.941,337.067a1.674,1.674,0,1,0,1.674,1.674A1.676,1.676,0,0,0,69.941,337.067Zm0,2.791a1.116,1.116,0,1,1,1.116-1.116A1.117,1.117,0,0,1,69.941,339.858Z" transform="translate(-68.267 -337.067)" fill="#fff"/>
    </g>
  </g>
  <g id="Group_1086" data-name="Group 1086" transform="translate(11.721 8.651)">
    <g id="Group_1085" data-name="Group 1085" transform="translate(0 0)">
      <path id="Path_1705" data-name="Path 1705" d="M360.074,337.067a1.674,1.674,0,1,0,1.674,1.674A1.676,1.676,0,0,0,360.074,337.067Zm0,2.791a1.116,1.116,0,1,1,1.116-1.116A1.117,1.117,0,0,1,360.074,339.858Z" transform="translate(-358.4 -337.067)" fill="#fff"/>
    </g>
  </g>
  <g id="Group_1088" data-name="Group 1088" transform="translate(10.605 3.07)">
    <g id="Group_1087" data-name="Group 1087">
      <path id="Path_1706" data-name="Path 1706" d="M330.362,170.435l-2.512-3.907a.279.279,0,0,0-.235-.128h-3.07a.279.279,0,0,0-.279.279v6.977a.279.279,0,0,0,.279.279h1.116v-.558h-.837v-6.419h2.638l2.385,3.71v2.709h-1.4v.558h1.674a.279.279,0,0,0,.279-.279v-3.07A.279.279,0,0,0,330.362,170.435Z" transform="translate(-324.267 -166.4)" fill="#fff"/>
    </g>
  </g>
  <g id="Group_1090" data-name="Group 1090" transform="translate(11.721 4.186)">
    <g id="Group_1089" data-name="Group 1089">
      <path id="Path_1707" data-name="Path 1707" d="M358.959,203.045v-1.953h2.233v-.558H358.68a.279.279,0,0,0-.279.279v2.512a.279.279,0,0,0,.279.279h4.186v-.558h-3.907Z" transform="translate(-358.401 -200.533)" fill="#fff"/>
    </g>
  </g>
  <g id="Group_1092" data-name="Group 1092" transform="translate(0 1.116)">
    <g id="Group_1091" data-name="Group 1091">
      <path id="Path_1708" data-name="Path 1708" d="M10.884,106.667H.279a.279.279,0,0,0-.279.279v8.93a.279.279,0,0,0,.279.279H2.512V115.6H.558v-8.372H10.6V115.6H5.3v.558h5.581a.279.279,0,0,0,.279-.279v-8.93A.279.279,0,0,0,10.884,106.667Z" transform="translate(0 -106.667)" fill="#fff"/>
    </g>
  </g>
  <g id="Group_1094" data-name="Group 1094" transform="translate(0.279 8.93)">
    <g id="Group_1093" data-name="Group 1093">
      <rect id="Rectangle_226" data-name="Rectangle 226" width="1.674" height="0.558" fill="#fff"/>
    </g>
  </g>
  <g id="Group_1096" data-name="Group 1096" transform="translate(5.86 8.93)">
    <g id="Group_1095" data-name="Group 1095">
      <rect id="Rectangle_227" data-name="Rectangle 227" width="4.744" height="0.558" fill="#fff"/>
    </g>
  </g>
  <g id="Group_1098" data-name="Group 1098" transform="translate(15.349 8.93)">
    <g id="Group_1097" data-name="Group 1097">
      <rect id="Rectangle_228" data-name="Rectangle 228" width="1.116" height="0.558" fill="#fff"/>
    </g>
  </g>
  <g id="Group_1100" data-name="Group 1100" transform="translate(1.116 2.233)">
    <g id="Group_1099" data-name="Group 1099">
      <rect id="Rectangle_229" data-name="Rectangle 229" width="9.767" height="0.558" fill="#fff"/>
    </g>
  </g>
  <g id="Group_1102" data-name="Group 1102" transform="translate(3.628 10.046)">
    <g id="Group_1101" data-name="Group 1101" transform="translate(0 0)">
      <rect id="Rectangle_230" data-name="Rectangle 230" width="0.558" height="0.558" fill="#fff"/>
    </g>
  </g>
  <g id="Group_1104" data-name="Group 1104" transform="translate(13.116 10.046)">
    <g id="Group_1103" data-name="Group 1103" transform="translate(0 0)">
      <rect id="Rectangle_231" data-name="Rectangle 231" width="0.558" height="0.558" fill="#fff"/>
    </g>
  </g>
  <g id="Group_1106" data-name="Group 1106" transform="translate(1.116 0)">
    <g id="Group_1105" data-name="Group 1105" transform="translate(0 0)">
      <rect id="Rectangle_232" data-name="Rectangle 232" width="3.907" height="0.558" fill="#fff"/>
    </g>
  </g>
  <g id="Group_1108" data-name="Group 1108" transform="translate(0 0)">
    <g id="Group_1107" data-name="Group 1107" transform="translate(0 0)">
      <rect id="Rectangle_233" data-name="Rectangle 233" width="0.558" height="0.558" fill="#fff"/>
    </g>
  </g>
</svg>
