<svg xmlns="http://www.w3.org/2000/svg" width="39.931" height="39.747" viewBox="0 0 39.931 39.747">
  <g id="_003-exchange" data-name="003-exchange" transform="translate(0.343 0.158)">
    <path id="Path_1709" data-name="Path 1709" d="M39.039,9.03,23.679.6a.771.771,0,0,0-.741,0L17.148,3.775a.772.772,0,0,0-.331.182L7.578,9.03a.77.77,0,0,0-.4.675v10.2A10.262,10.262,0,0,0,1.04,34.189a.77.77,0,0,0,1.384-.676,8.709,8.709,0,1,1,4,4A.77.77,0,0,0,5.751,38.9,10.268,10.268,0,0,0,19.619,33.86l3.319,1.822a.77.77,0,0,0,.741,0l15.36-8.434a.771.771,0,0,0,.4-.675V21.22a.77.77,0,1,0-1.541,0v4.9L24.081,33.7V18.594l4.56-2.5v3.969a.77.77,0,0,0,1.142.675l3.291-1.812a.77.77,0,0,0,.4-.675V13.437l4.425-2.43v4.051a.77.77,0,1,0,1.541,0V9.705A.77.77,0,0,0,39.039,9.03ZM23.309,2.15,37.068,9.705l-4.34,2.383L18.968,4.533Zm0,15.111L9.549,9.705l4.5-2.471,13.76,7.555Zm6.1-3.35L15.649,6.356l1.719-.944,13.76,7.555ZM17.5,22.441a10.182,10.182,0,0,0-7.247-3,10.39,10.39,0,0,0-1.532.113V11.007L22.541,18.6V33.707l-2.4-1.317a10.3,10.3,0,0,0,.358-2.7A10.182,10.182,0,0,0,17.5,22.441Zm14.434-4.648-1.751.964V15.244l1.751-.961Zm0,0" transform="translate(0 -0.501)" fill="#f9c848" stroke="#f9c848" stroke-width="0.3"/>
    <path id="Path_1710" data-name="Path 1710" d="M492.706,219.441a.706.706,0,1,0,.5.207A.712.712,0,0,0,492.706,219.441Zm0,0" transform="translate(-453.974 -202.52)" fill="#f9c848" stroke="#f9c848" stroke-width="0.3"/>
    <path id="Path_1711" data-name="Path 1711" d="M67.86,326.221a.706.706,0,0,0,.5-1.205l-.489-.489h4.172a1.835,1.835,0,0,1,0,3.671H69.57a.706.706,0,1,0,0,1.412h2.472a3.247,3.247,0,1,0,0-6.494H67.87l.489-.489a.706.706,0,0,0-1-1l-1.694,1.694a.706.706,0,0,0,0,1l1.694,1.694A.7.7,0,0,0,67.86,326.221Zm0,0" transform="translate(-60.839 -295.472)" fill="#f9c848" stroke="#f9c848" stroke-width="0.3"/>
    <path id="Path_1712" data-name="Path 1712" d="M36.774,457.845a.7.7,0,0,1-.539-.251v0a.7.7,0,1,1,.541.253Zm0,0" transform="translate(-33.522 -420.952)" fill="#f9c848" stroke="#f9c848" stroke-width="0.3"/>
  </g>
</svg>
