<svg id="_002-email" data-name="002-email" xmlns="http://www.w3.org/2000/svg" width="16.579" height="12.628" viewBox="0 0 16.579 12.628">
  <g id="Group_2359" data-name="Group 2359" transform="translate(0.833 0)">
    <g id="Group_2358" data-name="Group 2358">
      <path id="Path_3151" data-name="Path 3151" d="M40.01,61H26.345a1.44,1.44,0,0,0-.624.146l7.424,7.424,1.664-1.6h0l5.825-5.825A1.44,1.44,0,0,0,40.01,61Z" transform="translate(-25.721 -61)" fill="#eaeaea"/>
    </g>
  </g>
  <g id="Group_2361" data-name="Group 2361" transform="translate(10.952 0.833)">
    <g id="Group_2360" data-name="Group 2360">
      <path id="Path_3152" data-name="Path 3152" d="M343.695,86.728l-5.482,5.481,5.481,5.481a1.44,1.44,0,0,0,.146-.624V87.352A1.44,1.44,0,0,0,343.695,86.728Z" transform="translate(-338.213 -86.728)" fill="#eaeaea"/>
    </g>
  </g>
  <g id="Group_2363" data-name="Group 2363" transform="translate(0 0.833)">
    <g id="Group_2362" data-name="Group 2362">
      <path id="Path_3153" data-name="Path 3153" d="M.146,86.721A1.44,1.44,0,0,0,0,87.345V97.06a1.441,1.441,0,0,0,.146.624L5.627,92.2Z" transform="translate(0 -86.721)" fill="#eaeaea"/>
    </g>
  </g>
  <g id="Group_2365" data-name="Group 2365" transform="translate(0.833 7.001)">
    <g id="Group_2364" data-name="Group 2364">
      <path id="Path_3154" data-name="Path 3154" d="M35.146,277.211l-1.664,1.6a.485.485,0,0,1-.687,0l-1.6-1.6-5.482,5.481a1.44,1.44,0,0,0,.624.146H40a1.44,1.44,0,0,0,.624-.146Z" transform="translate(-25.714 -277.211)" fill="#eaeaea"/>
    </g>
  </g>
</svg>
