<svg xmlns="http://www.w3.org/2000/svg" width="17.251" height="17.251" viewBox="0 0 17.251 17.251">
  <g id="_001-call" data-name="001-call" transform="translate(0 25.828)">
    <g id="Group_2357" data-name="Group 2357" transform="translate(0 -25.828)">
      <path id="Path_3150" data-name="Path 3150" d="M15.867,11.323a9.794,9.794,0,0,1-3.076-.49,1.406,1.406,0,0,0-1.367.288l-1.94,1.464a10.72,10.72,0,0,1-4.82-4.819L6.085,5.878a1.394,1.394,0,0,0,.343-1.413,9.81,9.81,0,0,1-.492-3.081A1.386,1.386,0,0,0,4.552,0H1.384A1.386,1.386,0,0,0,0,1.384,15.885,15.885,0,0,0,15.867,17.251a1.386,1.386,0,0,0,1.384-1.384V12.708A1.386,1.386,0,0,0,15.867,11.323Z" fill="#eaeaea"/>
    </g>
  </g>
</svg>
